<svg id="Layer_1" data-name="Layer 1" xmlns="http://www.w3.org/2000/svg" viewBox="0 0 204.39 198.76">
    <defs>
        <style>.cls-1{fill:#999;}.cls-2{font-size:16.43px;}.cls-2,.cls-3,.cls-4{font-family:open sans;}.cls-3{font-size:18.31px;}.cls-4{font-size:17.37px;}.cls-5{fill:#113258;}.cls-6{fill:#98bf54;}.cls-7{fill:none;stroke:#ff0000;stroke-miterlimit:10;stroke-width:2px;stroke-dasharray:6;}</style>
    </defs>
    <title>Sold_Loan_Bundle_to_NTB</title>
    <rect class="cls-1" x="12.31" y="16.84" width="0.47" height="163.02"/>
    <rect class="cls-1" x="187.98" y="16.84" width="0.47" height="163.02"/>
    <rect class="cls-1" x="271.67" y="506.46" width="0.47" height="182.7" transform="translate(-497.19 447.78) rotate(-90)"/>
    <text class="cls-2" transform="translate(0 20.12)">4<tspan x="0" y="39.54">3</tspan>
        <tspan x="0" y="79.07">2</tspan>
        <tspan x="0" y="118.61">1</tspan>
        <tspan x="0" y="158.15">0</tspan>
    </text>
    <text class="cls-2" transform="translate(195.96 20.12)">4<tspan x="0" y="39.54">3</tspan>
        <tspan x="0" y="79.07">2</tspan>
        <tspan x="0" y="118.61">1</tspan>
        <tspan x="0" y="158.15">0</tspan>
    </text>
    <text class="cls-3" transform="translate(155.08 127.82)">1</text>
    <text class="cls-3" transform="translate(96.08 93.07)">2</text>
    <text class="cls-3" transform="translate(158.21 110.38)">10%</text>
    <text class="cls-3" transform="translate(41.33 15.32)">4</text>
    <text class="cls-4" transform="translate(22.17 194.42)">M<tspan x="14.07" y="0">a</tspan>
        <tspan x="22.44" y="0">r</tspan>
        <tspan x="27.95" y="0">ch</tspan>
    </text>
    <text class="cls-4" transform="translate(85.29 194.42)">A<tspan x="10.58" y="0">p</tspan>
        <tspan x="20.46" y="0">r</tspan>
        <tspan x="26.21" y="0">il</tspan>
    </text>
    <text class="cls-4" transform="translate(146.72 194.42)">M<tspan x="14.07" y="0">a</tspan>
        <tspan x="22.3" y="0">y</tspan>
    </text>
    <rect class="cls-1" x="10.47" y="16.84" width="1.9" height="0.47"/>
    <rect class="cls-1" x="10.47" y="56.19" width="1.9" height="0.47"/>
    <rect class="cls-1" x="10.47" y="95.54" width="1.9" height="0.47"/>
    <rect class="cls-1" x="10.47" y="135.36" width="1.9" height="0.47"/>
    <rect class="cls-1" x="188.17" y="16.84" width="1.9" height="0.47"/>
    <rect class="cls-1" x="188.17" y="56.19" width="1.9" height="0.47"/>
    <rect class="cls-1" x="188.17" y="95.54" width="1.9" height="0.47"/>
    <rect class="cls-1" x="188.17" y="135.36" width="1.9" height="0.47"/>
    <rect class="cls-5" x="28.85" y="95.77" width="31.85" height="80.1"/>
    <rect class="cls-5" x="84.34" y="135.36" width="31.85" height="40.52"/>
    <rect class="cls-6" x="140.84" y="135.36" width="31.85" height="40.52"/>
    <polyline class="cls-7" points="44.78 16.94 94.22 95.44 158.47 134.32"/>
</svg>